{
  "page": 2,
  "per_page": 3,
  "total": 12,
  "total_pages": 4,
  "data": [
    {
      "id": 4,
      "first_name": "fName",
      "last_name": "lName"
    },
    {
      "id": 5,
      "first_name": "fName",
      "last_name": "lName"
    },
    {
      "id": 6,
      "first_name": "fName",
      "last_name": "lName"
    }
  ]
}
